{
    "colours": {
        "VFR": [
            0,
            0,
            255
        ],
        "MVFR": [
            0,
            0,
            255
        ],
        "IFR": [
            0,
            255,
            0
        ],
        "LIFR": [
            0,
            125,
            125
        ],
        "lightning": [
            255,
            255,
            255
        ],
        "high_wind": [
            255,
            255,
            0
        ]
    },
    "wind": {
        "enabled": true,
        "blink_threshold": 15,
        "high_wind_threshold": 25
    },
    "lightning": {
        "enabled": true
    },
    "brightness": {
        "day": 0.59,
        "night": 0.16
    },
    "dim_at_sunset": {
        "enabled": true,
        "location": "London"
    }
}